<?xml version="1.0" encoding="UTF-8" standalone="no"?>
<!-- Created with Inkscape (http://www.inkscape.org/) and export_objects.py -->

<svg xmlns:dc="http://purl.org/dc/elements/1.1/" xmlns:cc="http://creativecommons.org/ns#" xmlns:rdf="http://www.w3.org/1999/02/22-rdf-syntax-ns#" xmlns:svg="http://www.w3.org/2000/svg" xmlns="http://www.w3.org/2000/svg" xmlns:sodipodi="http://sodipodi.sourceforge.net/DTD/sodipodi-0.dtd" xmlns:inkscape="http://www.inkscape.org/namespaces/inkscape" version="1.1" id="svg1" width="16" height="16" viewBox="0 0 16 16" sodipodi:docname="powerstroke-symbolic.svg" inkscape:version="0.92.4 (5da689c313, 2019-01-14)">
<defs id="defs11" />
<sodipodi:namedview objecttolerance="10" gridtolerance="10" guidetolerance="10" id="namedview" showgrid="true" inkscape:zoom="19.2094" inkscape:cx="14.33259" inkscape:cy="1.22111" inkscape:window-x="0" inkscape:window-y="27" inkscape:window-width="1280" inkscape:window-height="960" inkscape:window-maximized="1" inkscape:current-layer="layercompo">
<inkscape:grid type="xygrid" id="grid" />
</sodipodi:namedview>
<metadata id="metadata1906">
<rdf:RDF>
<cc:Work rdf:about="">
<dc:format>image/svg+xml</dc:format>
<dc:type rdf:resource="http://purl.org/dc/dcmitype/StillImage" />
<cc:license rdf:resource="http://creativecommons.org/publicdomain/zero/1.0/" />
<dc:title>LiveEffect Icons proposal</dc:title>
<dc:date>13 Jan 2019</dc:date>
<dc:creator>
<cc:Agent>
<dc:title>Ramón Miranda</dc:title>
</cc:Agent>
</dc:creator>
<dc:rights>
<cc:Agent>
<dc:title>see the license tab</dc:title>
</cc:Agent>
</dc:rights>
<dc:subject>
<rdf:Bag>
<rdf:li>icon ui</rdf:li>
</rdf:Bag>
</dc:subject>
<dc:description>This is a contribution with Inkscape Project from
Ramon Miranda www.ramonmiranda.com (design and SVG file)
Jabiertxo (SVG stuff to integrate them in UI)</dc:description>
<dc:publisher>
<cc:Agent>
<dc:title />
</cc:Agent>
</dc:publisher>
<dc:identifier />
<dc:source />
<dc:relation />
<dc:language>-</dc:language>
<dc:coverage />
<dc:contributor>
<cc:Agent>
<dc:title>Ramon Miranda
Jabier Arraiza</dc:title>
</cc:Agent>
</dc:contributor>
</cc:Work>
<cc:License rdf:about="http://creativecommons.org/publicdomain/zero/1.0/">
<cc:permits rdf:resource="http://creativecommons.org/ns#Reproduction" />
<cc:permits rdf:resource="http://creativecommons.org/ns#Distribution" />
<cc:permits rdf:resource="http://creativecommons.org/ns#DerivativeWorks" />
</cc:License>
</rdf:RDF>
</metadata>
<g inkscape:groupmode="layer" id="layercompo" inkscape:label="perspective-envelope">
<path id="rect22048" d="M 0,0 H 16 V 16 H 0 Z" style="opacity:0;fill:none" />
<path id="path9610" d="M 1.777198,1.625521 1.564252,2.353777 C 3.457508,2.90749 4.398704,3.685276 4.996554,4.601788 5.380508,5.19041 5.617858,5.859093 5.838944,6.573134 5.522334,6.803812 5.313748,7.175491 5.313748,7.595359 c 0,0.696333 0.56799,1.263832 1.264321,1.263832 0.0066,0 0.01317,0 0.01976,0 0.355932,0.861417 0.856921,1.734619 1.692688,2.549899 1.180625,1.15166 3.000873,2.1758 5.947603,2.96539 l 0.19761,-0.7337 C 11.57172,12.87337 9.88095,11.90234 8.818675,10.8661 8.082831,10.14829 7.639821,9.393601 7.315717,8.617585 7.633088,8.387541 7.842394,8.016822 7.842394,7.596347 c 0,-0.696334 -0.56799,-1.266286 -1.264325,-1.266286 -0.0057,0 -0.01105,0 -0.01679,0 C 6.335148,5.595429 6.075441,4.867957 5.631435,4.187258 4.937012,3.122712 3.793424,2.215179 1.777198,1.625521 Z M 9.799404,3.287086 10.56126,4.05091 8.846835,5.767317 9.603257,6.52717 9.840411,6.290016 11.31718,4.809295 12.07904,5.572636 V 3.287086 Z M 6.578069,6.835002 c 0.424808,0 0.757904,0.33558 0.757904,0.760357 0,0.424801 -0.333096,0.757904 -0.757904,0.757904 -0.424806,0 -0.759876,-0.333103 -0.759876,-0.757904 0,-0.424777 0.33507,-0.760357 0.759876,-0.760357 z M 4.149224,10.51334 3.912072,10.7505 2.435297,12.23122 1.673442,11.46788 v 2.28558 H 3.953079 L 3.191223,12.9896 4.905646,11.27322 Z" style="opacity:1;stroke-width:0.2529636" inkscape:connector-curvature="0" />
<path id="path7" d="m 1.668007,1.678871 -0.05089,0.174427 c 0,0 0.220748,0.04811 0.771239,0.256428 0.445872,0.168754 0.961775,0.527607 1.350789,1.013321 0.409088,0.510785 0.604105,1.058198 0.666498,1.622029 0.05765,0.520901 0.002,1.068089 -0.03408,1.570651 -0.04828,0.663194 -0.06383,1.27524 0.07214,1.710969 0.0096,0.03022 0.01997,0.06126 0.03211,0.09388 0.155898,0.418757 0.593662,1.162114 1.260863,1.902154 0.546863,0.60656 1.208889,1.16915 2.039026,1.66157 0.86442,0.51273 1.790568,0.87987 2.762348,1.19513 0.86913,0.28196 1.7272,0.50503 2.35326,0.71394 C 13.86644,13.91877 14.25195,14 14.25195,14 l 0.11623,-0.43332 c 0,0 -0.37941,-0.0805 -1.3345,-0.39921 -0.6237,-0.20806 -1.38681,-0.59571 -2.07223,-1.11312 C 10.19488,11.47564 9.634035,10.82226 9.279148,10.14278 8.946898,9.506651 8.830702,8.920383 8.776185,8.408107 8.706199,7.750477 8.719316,7.185609 8.624999,6.808314 8.618295,6.780868 8.610705,6.754408 8.602763,6.729262 8.507728,6.42472 8.150077,5.825829 7.673419,5.18826 7.274772,4.655013 6.780357,4.084174 6.167002,3.595879 5.519878,3.080668 4.866054,2.754345 4.170961,2.499534 3.519936,2.260863 2.895328,2.10782 2.452587,1.940233 1.891815,1.727997 1.668005,1.678871 1.668005,1.678871 Z m 4.87943,4.955025 A 1.054918,0.9757994 0 0 1 7.602276,7.609703 1.054918,0.9757994 0 0 1 6.547437,8.585483 1.054918,0.9757994 0 0 1 5.492106,7.609703 1.054918,0.9757994 0 0 1 6.547437,6.633896 Z" style="opacity:0.3095238;stroke-width:0.2529636" inkscape:connector-curvature="0" />
</g>
</svg>
