<?xml version='1.0' encoding='UTF-8'?>
<!-- Created with Inkscape (http://www.inkscape.org/) and export_objects.py -->
<svg xmlns:cc="http://creativecommons.org/ns#" xmlns:dc="http://purl.org/dc/elements/1.1/" xmlns:inkscape="http://www.inkscape.org/namespaces/inkscape" xmlns:rdf="http://www.w3.org/1999/02/22-rdf-syntax-ns#" xmlns:sodipodi="http://sodipodi.sourceforge.net/DTD/sodipodi-0.dtd" xmlns:xlink="http://www.w3.org/1999/xlink" xmlns="http://www.w3.org/2000/svg" version="1.1" id="svg1" width="16" height="16" viewBox="0 0 16 16" sodipodi:docname="selection-top-symbolic.svg"><sodipodi:namedview objecttolerance="10" gridtolerance="10" guidetolerance="10" id="namedview" showgrid="true" inkscape:zoom="0.6002936" inkscape:cx="732.67439" inkscape:cy="-567.94603" inkscape:window-width="1920" inkscape:window-height="1016" inkscape:window-x="0" inkscape:window-y="27" inkscape:window-maximized="1" inkscape:current-layer="layer1">
    <inkscape:grid type="xygrid" id="grid"/>
  </sodipodi:namedview>
  <g
     id="searching">
    <path
       d="m 6.914463,1.41365 c -3.005658,0 -5.451776,2.43867 -5.451776,5.43532 0,2.99666 2.446078,5.43538 5.451776,5.43538 1.310212,0 2.513927,-0.46362 3.45522,-1.23458 l 3.547304,3.53658 0.620326,-0.61845 -3.536404,-3.52572 c 0.849092,-0.95867 1.365268,-2.21699 1.365268,-3.59321 0,-2.99665 -2.44605,-5.43532 -5.451714,-5.43532 z m 0,0.87467 c 2.531574,0 4.574468,2.03669 4.574468,4.56065 0,2.52399 -2.042905,4.56073 -4.574468,4.56073 -2.531597,0 -4.574466,-2.03674 -4.574466,-4.56073 0,-2.52396 2.042869,-4.56071 4.574466,-4.56071 z"
       id="path10677"
       style="opacity:1"
     />
    <rect
       height="16"
       id="rect9056-0"
       style="opacity:0;fill:none"
       width="16"
       x="0"
       y="0" />
  </g>
</svg>
